49.5
54
52.5
52.5
51
51
51
49.5
51
51
51
51
51
49.5
193.5
10321.5
37.5
37.5
36
37.5
37.5
4503
9276
1482
400.5
52.5
51
51
49.5
49.5
48
49.5
49.5
51
49.5
57
51
49.5
49.5
51
49.5
51
49.5
49.5
1017
3687
3631
6441
3742.5
1363.5
52.5
51
48
49.5
51
76.5
91.5
60
60
60
58.5
60
60
60
60
60
60
3249
8818.5
9574
2287.5
7905
1657.5
214.5
61.5
61.5
60
60
60
60
60
60
60
58.5
58.5
57
60
60
58.5
61.5
61.5
61.5
1359.5
3073.5
2858.5
240
1975.5
252
61.5
60
60
60
58.5
60
57
57
60
60
60
58.5
58.5
61.5
294
60
60
61.5
63
1186.5
252
370.5
63
63
63
63
63
61.5
76.5
5235
1463
219
277.5
220.5
1035
4431
225
216
9975
1587
3413.5
2377.5
61.5
60
63
58.5
58.5
61.5
60
61.5
63
63
63
61.5
115.5
579
6303
1464
738
1255.5
10950
2106.5
2857.5
222
640.5
1443.5
1339.5
2202
267
6930
